{
  "designerVersion" : "1.8.39",
  "id" : "remplirDemandeConges",
  "name" : "remplirDemandeConges",
  "lastUpdate" : 1552472379857,
  "rows" : [ [ {
    "type" : "formContainer",
    "dimension" : {
      "xs" : 12
    },
    "propertyValues" : { },
    "reference" : "55f4a159-186f-41e3-af0a-0813d73d6e83",
    "hasValidationError" : false,
    "id" : "pbFormContainer",
    "container" : {
      "type" : "container",
      "dimension" : {
        "xs" : 12
      },
      "propertyValues" : { },
      "reference" : "186e178a-7eaf-49dc-aae6-964d77768718",
      "hasValidationError" : false,
      "id" : "pbContainer",
      "rows" : [ [ {
        "type" : "component",
        "dimension" : {
          "xs" : 12
        },
        "propertyValues" : {
          "labelHidden" : {
            "type" : "constant",
            "value" : false
          },
          "readonly" : {
            "type" : "constant",
            "value" : false
          },
          "level" : {
            "type" : "constant",
            "value" : "Level 2"
          },
          "cssClasses" : {
            "type" : "constant",
            "value" : ""
          },
          "widgetId" : {
            "type" : "constant",
            "value" : "pbTitle"
          },
          "isDisplayed" : {
            "type" : "constant",
            "value" : true
          },
          "label" : {
            "type" : "interpolation"
          },
          "text" : {
            "type" : "interpolation",
            "value" : "Saisir une demande de congés"
          },
          "alignment" : {
            "type" : "constant",
            "value" : "center"
          },
          "class" : {
            "type" : "constant",
            "value" : "org.bonitasoft.web.designer.experimental.parametrizedWidget.TitleWidget"
          },
          "dimension" : {
            "type" : "constant",
            "value" : 12
          },
          "hidden" : {
            "type" : "constant",
            "value" : false
          }
        },
        "reference" : "dd75a595-1fd8-479f-8724-180cd6b7e36d",
        "hasValidationError" : false,
        "id" : "pbTitle"
      } ], [ {
        "type" : "container",
        "dimension" : {
          "xs" : 12
        },
        "propertyValues" : {
          "repeatedCollection" : {
            "type" : "variable"
          },
          "labelHidden" : {
            "type" : "constant",
            "value" : false
          },
          "readonly" : {
            "type" : "constant",
            "value" : false
          },
          "cssClasses" : {
            "type" : "constant",
            "value" : ""
          },
          "widgetId" : {
            "type" : "constant"
          },
          "isDisplayed" : {
            "type" : "constant",
            "value" : true
          },
          "label" : {
            "type" : "interpolation"
          },
          "alignment" : {
            "type" : "constant",
            "value" : "left"
          },
          "class" : {
            "type" : "constant",
            "value" : "org.bonitasoft.web.designer.experimental.parametrizedWidget.WidgetContainer"
          },
          "dimension" : {
            "type" : "constant",
            "value" : 12
          }
        },
        "reference" : "404d38a4-a8bc-430a-a684-e1929e5026c0",
        "hasValidationError" : false,
        "id" : "pbContainer",
        "rows" : [ [ {
          "type" : "component",
          "dimension" : {
            "xs" : 12
          },
          "propertyValues" : {
            "dateFormat" : {
              "type" : "constant",
              "value" : "dd/MM/yyyy"
            },
            "cssClasses" : {
              "type" : "constant",
              "value" : ""
            },
            "widgetId" : {
              "type" : "constant",
              "value" : "pbDatePicker"
            },
            "isDisplayed" : {
              "type" : "constant",
              "value" : true
            },
            "labelWidth" : {
              "type" : "constant",
              "value" : 1
            },
            "label" : {
              "type" : "interpolation",
              "value" : "Date de début"
            },
            "type" : {
              "type" : "constant"
            },
            "required" : {
              "type" : "constant",
              "value" : true
            },
            "todayLabel" : {
              "type" : "constant",
              "value" : "Aujourd'hui"
            },
            "labelHidden" : {
              "type" : "constant",
              "value" : false
            },
            "readonly" : {
              "type" : "constant",
              "value" : false
            },
            "showToday" : {
              "type" : "constant",
              "value" : true
            },
            "labelPosition" : {
              "type" : "constant",
              "value" : "top"
            },
            "placeholder" : {
              "type" : "constant",
              "value" : "jj/mm/aaaa"
            },
            "alignment" : {
              "type" : "constant",
              "value" : "left"
            },
            "class" : {
              "type" : "constant",
              "value" : "org.bonitasoft.web.designer.experimental.parametrizedWidget.DatePickerWidget"
            },
            "dimension" : {
              "type" : "constant",
              "value" : 12
            },
            "value" : {
              "type" : "variable",
              "value" : "formInput.demandeInput.dateDebut"
            },
            "hidden" : {
              "type" : "constant",
              "value" : false
            },
            "readOnly" : {
              "type" : "constant",
              "value" : false
            }
          },
          "reference" : "2ea13ed6-d004-41c7-8d04-91de83e85e79",
          "hasValidationError" : false,
          "id" : "pbDatePicker"
        } ], [ {
          "type" : "component",
          "dimension" : {
            "xs" : 12
          },
          "propertyValues" : {
            "cssClasses" : {
              "type" : "constant",
              "value" : ""
            },
            "widgetId" : {
              "type" : "constant",
              "value" : "pbInput"
            },
            "isDisplayed" : {
              "type" : "constant",
              "value" : true
            },
            "labelWidth" : {
              "type" : "constant",
              "value" : 1
            },
            "label" : {
              "type" : "interpolation",
              "value" : "Nombre de jours"
            },
            "type" : {
              "type" : "constant",
              "value" : "number"
            },
            "required" : {
              "type" : "constant",
              "value" : true
            },
            "labelHidden" : {
              "type" : "constant",
              "value" : false
            },
            "readonly" : {
              "type" : "constant",
              "value" : false
            },
            "labelPosition" : {
              "type" : "constant",
              "value" : "top"
            },
            "placeholder" : {
              "type" : "constant",
              "value" : "Nombre de jours de congés"
            },
            "alignment" : {
              "type" : "constant",
              "value" : "left"
            },
            "class" : {
              "type" : "constant",
              "value" : "org.bonitasoft.web.designer.experimental.parametrizedWidget.InputWidget"
            },
            "dimension" : {
              "type" : "constant",
              "value" : 12
            },
            "value" : {
              "type" : "variable",
              "value" : "formInput.demandeInput.nombreJours"
            },
            "hidden" : {
              "type" : "constant",
              "value" : false
            },
            "minLength" : {
              "type" : "constant",
              "value" : ""
            },
            "maxLength" : {
              "type" : "constant",
              "value" : ""
            },
            "readOnly" : {
              "type" : "constant",
              "value" : false
            },
            "min" : {
              "type" : "constant",
              "value" : 1
            },
            "max" : {
              "type" : "constant"
            },
            "step" : {
              "type" : "constant",
              "value" : 1
            }
          },
          "reference" : "8f3d8e61-b30b-49e5-8635-46ca737d863d",
          "hasValidationError" : false,
          "id" : "pbInput"
        } ] ]
      } ], [ {
        "type" : "component",
        "dimension" : {
          "xs" : 6
        },
        "propertyValues" : {
          "removeItem" : {
            "type" : "variable"
          },
          "cssClasses" : {
            "type" : "constant",
            "value" : ""
          },
          "widgetId" : {
            "type" : "constant",
            "value" : "pbButton"
          },
          "buttonStyle" : {
            "type" : "constant",
            "value" : "primary"
          },
          "isDisplayed" : {
            "type" : "constant",
            "value" : true
          },
          "label" : {
            "type" : "interpolation",
            "value" : "Soumettre"
          },
          "dataToSend" : {
            "type" : "expression",
            "value" : "formOutput"
          },
          "labelHidden" : {
            "type" : "constant",
            "value" : false
          },
          "readonly" : {
            "type" : "constant",
            "value" : false
          },
          "collectionPosition" : {
            "type" : "constant"
          },
          "targetUrlOnSuccess" : {
            "type" : "interpolation",
            "value" : "/bonita"
          },
          "action" : {
            "type" : "constant",
            "value" : "Start process"
          },
          "collectionToModify" : {
            "type" : "variable"
          },
          "valueToAdd" : {
            "type" : "expression"
          },
          "disabled" : {
            "type" : "expression",
            "value" : "$form.$invalid"
          },
          "alignment" : {
            "type" : "constant",
            "value" : "center"
          },
          "class" : {
            "type" : "constant",
            "value" : "org.bonitasoft.web.designer.experimental.parametrizedWidget.ButtonWidget"
          },
          "dimension" : {
            "type" : "constant",
            "value" : 12
          },
          "hidden" : {
            "type" : "constant",
            "value" : false
          },
          "url" : {
            "type" : "interpolation"
          },
          "dataFromSuccess" : {
            "type" : "variable",
            "value" : ""
          },
          "closeOnSuccess" : {
            "type" : "constant",
            "value" : false
          },
          "dataFromError" : {
            "type" : "variable",
            "value" : "erreur"
          },
          "modalId" : {
            "type" : "constant",
            "value" : ""
          }
        },
        "reference" : "eb1a260f-db2e-4715-9535-d0ab2046a417",
        "hasValidationError" : false,
        "id" : "pbButton"
      } ], [ {
        "type" : "component",
        "dimension" : {
          "xs" : 12
        },
        "propertyValues" : {
          "cssClasses" : {
            "type" : "constant",
            "value" : "text-danger"
          },
          "hidden" : {
            "type" : "expression",
            "value" : "!erreur"
          },
          "allowHTML" : {
            "type" : "constant",
            "value" : true
          },
          "text" : {
            "type" : "interpolation",
            "value" : "<b>Erreur :</b> {{erreur | json}}"
          },
          "alignment" : {
            "type" : "constant",
            "value" : "left"
          }
        },
        "reference" : "1644eb1c-2fc3-4624-8c0e-0321cea57a43",
        "hasValidationError" : false,
        "id" : "pbText"
      } ] ]
    }
  } ] ],
  "assets" : [ {
    "id" : "dca726a6-e8ef-4f08-b23b-0dd071d319ed",
    "name" : "style.css",
    "type" : "css",
    "order" : 0,
    "external" : false
  } ],
  "inactiveAssets" : [ ],
  "data" : {
    "formInput" : {
      "type" : "json",
      "value" : "{\r\n \"demandeInput\" : {\r\n    \"dateDebut\" : null,\r\n    \"nombreJours\" : null\r\n }\r\n}\r\n",
      "exposed" : false
    },
    "formOutput" : {
      "type" : "expression",
      "value" : "return {\n\t'demandeInput': $data.formInput.demandeInput\n};",
      "exposed" : false
    },
    "erreur" : {
      "type" : "constant",
      "exposed" : false
    }
  },
  "hasValidationError" : false,
  "uuid" : "92fa0126-576f-4c99-aae5-f8cf2c7baefe",
  "type" : "form",
  "description" : "Page generated with Bonita UI designer",
  "displayName" : "newForm"
}